module gitlab.com/Mamoru777/templib

go 1.21.4

require (
	github.com/bshuster-repo/logrus-logstash-hook v1.1.0
	github.com/google/uuid v1.4.0
	github.com/grpc-ecosystem/grpc-gateway/v2 v2.18.1
	github.com/sirupsen/logrus v1.9.3
	google.golang.org/grpc v1.59.0
)

require (
	github.com/golang/protobuf v1.5.3 // indirect
	golang.org/x/net v0.17.0 // indirect
	golang.org/x/sys v0.13.0 // indirect
	golang.org/x/text v0.14.0 // indirect
	google.golang.org/genproto/googleapis/api v0.0.0-20231106174013-bbf56f31fb17 // indirect
	google.golang.org/genproto/googleapis/rpc v0.0.0-20231030173426-d783a09b4405 // indirect
	google.golang.org/protobuf v1.31.0 // indirect
)
